Introductie: Waarom Statistiek?
…
Dan zouden we inzicht kunnen krijgen hoe de gegevens veranderen van steekproef tot steekproef.

Of wat met andere woorden de variabiliteit is van steekproef tot steekproef.

Variabiliteit van steekproef tot steekproef

Om dit te illustreren zullen we gebruik maken van een hele grote studie.

Uit die studie zullen we herhaaldelijk kleine steekproeven trekken om te begrijpen hoe de gegevens en statistieken veranderen van steekproef tot steekproef.

library(NHANES)
NHANES

## # A tibble: 10,000 x 76
##       ID SurveyYr Gender   Age AgeDecade AgeMonths Race1 Race3 Education
##    <int> <fct>    <fct>  <int> <fct>         <int> <fct> <fct> <fct>    
##  1 51624 2009_10  male      34 " 30-39"        409 White <NA>  High Sch
##  2 51624 2009_10  male      34 " 30-39"        409 White <NA>  High Sch
##  3 51624 2009_10  male      34 " 30-39"        409 White <NA>  High Sch
##  4 51625 2009_10  male       4 " 0-9"           49 Other <NA>  <NA>     
##  5 51630 2009_10  female    49 " 40-49"        596 White <NA>  Some Col
##  6 51638 2009_10  male       9 " 0-9"          115 White <NA>  <NA>     
##  7 51646 2009_10  male       8 " 0-9"          101 White <NA>  <NA>     
##  8 51647 2009_10  female    45 " 40-49"        541 White <NA>  College 
##  9 51647 2009_10  female    45 " 40-49"        541 White <NA>  College 
## 10 51647 2009_10  female    45 " 40-49"        541 White <NA>  College 
## #  with 9,990 more rows, and 67 more variables: MaritalStatus <fct>,
## #   HHIncome <fct>, HHIncomeMid <int>, Poverty <dbl>, HomeRooms <int>,
## #   HomeOwn <fct>, Work <fct>, Weight <dbl>, Length <dbl>, HeadCirc <dbl>,
## #   Height <dbl>, BMI <dbl>, BMICatUnder20yrs <fct>, BMI_WHO <fct>,
## #   Pulse <int>, BPSysAve <int>, BPDiaAve <int>, BPSys1 <int>,
## #   BPDia1 <int>, BPSys2 <int>, BPDia2 <int>, BPSys3 <int>, BPDia3 <int>,
## #   Testosterone <dbl>, DirectChol <dbl>, TotChol <dbl>, UrineVol1 <int>,
## #   UrineFlow1 <dbl>, UrineVol2 <int>, UrineFlow2 <dbl>, Diabetes <fct>,
## #   DiabetesAge <int>, HealthGen <fct>, DaysPhysHlthBad <int>,
…
